^E:\PWR\SEM 4\PAMSI\LISTA 7\L7_2\L7_2\L7_2\STDAFX.CPP
/c /ZI /nologo /W3 /WX- /sdl /Od /Oy- /D WIN32 /D _DEBUG /D _CONSOLE /D _UNICODE /D UNICODE /Gm /EHsc /RTC1 /MDd /GS /fp:precise /Zc:wchar_t /Zc:forScope /Zc:inline /Yc"stdafx.h" /Fp"DEBUG\L7_2.PCH" /Fo"DEBUG\\" /Fd"DEBUG\VC140.PDB" /Gd /TP /analyze- E:\PWR\SEM 4\PAMSI\LISTA 7\L7_2\L7_2\L7_2\STDAFX.CPP
^E:\PWR\SEM 4\PAMSI\LISTA 7\L7_2\L7_2\L7_2\L7_2.CPP
/c /ZI /nologo /W3 /WX- /sdl /Od /Oy- /D WIN32 /D _DEBUG /D _CONSOLE /D _UNICODE /D UNICODE /Gm /EHsc /RTC1 /MDd /GS /fp:precise /Zc:wchar_t /Zc:forScope /Zc:inline /Yu"stdafx.h" /Fp"DEBUG\L7_2.PCH" /Fo"DEBUG\\" /Fd"DEBUG\VC140.PDB" /Gd /TP /analyze- E:\PWR\SEM 4\PAMSI\LISTA 7\L7_2\L7_2\L7_2\L7_2.CPP
